<svg xmlns="http://www.w3.org/2000/svg" width="42" height="49" viewBox="0 0 42 49">
  <g id="arrows_left" data-name="arrows left" transform="translate(42.5 -0.5) rotate(90)">
    <path id="Path" d="M19.8,14.625a1.912,1.912,0,0,0,1.54-.731,2.536,2.536,0,0,0,0-3.413L12.54.731a1.987,1.987,0,0,0-3.08,0l-8.8,9.75a2.536,2.536,0,0,0,0,3.413,1.987,1.987,0,0,0,3.08,0L8.8,8.288V36.563a2.212,2.212,0,1,0,4.4,0V8.288l5.06,5.606A1.912,1.912,0,0,0,19.8,14.625Z" transform="translate(27.5 0.5)" fill="#015"/>
    <path id="Path-2" data-name="Path" d="M18.26,25.106,13.2,30.712V2.438a2.212,2.212,0,1,0-4.4,0V30.712L3.74,25.106a1.987,1.987,0,0,0-3.08,0,2.536,2.536,0,0,0,0,3.412l8.8,9.75a1.987,1.987,0,0,0,3.08,0l8.8-9.75a2.536,2.536,0,0,0,0-3.412A1.987,1.987,0,0,0,18.26,25.106Z" transform="translate(0.5 3.5)" fill="#015"/>
  </g>
</svg>
